%YAML 1.1
%TAG !u! tag:unity3d.com,2011:
--- !u!114 &11400000
MonoBehaviour:
  m_ObjectHideFlags: 0
  m_CorrespondingSourceObject: {fileID: 0}
  m_PrefabInstance: {fileID: 0}
  m_PrefabAsset: {fileID: 0}
  m_GameObject: {fileID: 0}
  m_Enabled: 1
  m_EditorHideFlags: 0
  m_Script: {fileID: 11500000, guid: 101eaee426711de4fb57ad690efe6b66, type: 3}
  m_Name: Sheep
  m_EditorClassIdentifier: 
  CardName: Sheep
  CardImage: {fileID: 8166333351047658428, guid: c75e3c9b40bd2c043bade8313f6d4438,
    type: 3}
  CardAudioClip: {fileID: 8300000, guid: 3591b1397d8bcfe48b5e75766e44568e, type: 3}
